SP label,DK label,AP label,0
,,,52715
,,translation,6148
,eng,,30250
,eng,translation,990
,translation,,5647
,translation,translation,7650
eng,,,1256
eng,,translation,45
eng,eng,,61553
eng,eng,translation,917
eng,translation,,185
eng,translation,translation,148
translation,,,44
translation,,translation,78
translation,eng,,21
translation,eng,translation,49
translation,translation,,2651
translation,translation,translation,6276
